asgiref==3.7.2
asttokens==2.2.1
backcall==0.2.0
decorator==5.1.1
Django==4.2.3
django-enumfields==2.1.1
django-filter==23.2
django-polymorphic==3.1.0
djangorestframework==3.14.0
executing==1.2.0
Faker==18.11.2
freezegun==1.2.2
iniconfig==2.0.0
ipython==8.14.0
jedi==0.18.2
matplotlib-inline==0.1.6
mock==5.0.2
model-bakery==1.12.0
packaging==23.1
parso==0.8.3
pdfkit==1.0.0
pexpect==4.8.0
pickleshare==0.7.5
pluggy==1.2.0
prompt-toolkit==3.0.39
psycopg2-binary==2.9.6
ptyprocess==0.7.0
pure-eval==0.2.2
Pygments==2.15.1
PyJWT==2.7.0
pytest==7.4.0
pytest-django==4.5.2
python-dateutil==2.8.2
pytz==2023.3
six==1.16.0
sqlparse==0.4.4
stack-data==0.6.2
traitlets==5.9.0
wcwidth==0.2.6
